{
    "project_name": "Project name",
    "repo_name": "{{ cookiecutter.project_name|replace(' ', '_')|lower() }}",
    "author": "Your Name",
    "username": "{{ cookiecutter.author|lower() }}",
    "email": "you@domain.com",
    "python": "/usr/bin/python3.5",
    "create_superuser": "no"
}
